alchemy-core==0.5.33
aniso8601==1.1.0
Flask==0.10.1
Flask-RESTful==0.3.5
Flask-Script==2.0.5
itsdangerous==0.24
Jinja2==2.8
MarkupSafe==0.23
python-dateutil==2.5.3
pytz==2016.4
six==1.10.0
Werkzeug==0.11.10
